{
	"info": {
		"_postman_id": "dba556ee-331a-4a41-82f6-fa11514dca77",
		"name": "shopping_api",
		"schema": "https://schema.getpostman.com/json/collection/v2.1.0/collection.json"
	},
	"item": [
		{
			"name": "users",
			"item": [
				{
					"name": "{{API_HOST}}/shopping/users",
					"request": {
						"method": "POST",
						"header": [],
						"body": {
							"mode": "raw",
							"raw": " {\"name\": \"Thanh\",\n    \"userName\": \"duythanh\",\n    \"tel\": \"0911777711\",\n    \"email\": \"gump@gmail.com\",\n    \"birthday\": \"2000-10-01T14:48:00.000Z\",\n \t\"address\": \"33 nam cao\",\n \t\"password\": \"duythanh1\",\n \t\"role\": 1\n }",
							"options": {
								"raw": {
									"language": "json"
								}
							}
						},
						"url": {
							"raw": "{{API_HOST}}/users",
							"host": [
								"{{API_HOST}}"
							],
							"path": [
								"users"
							]
						}
					},
					"response": []
				},
				{
					"name": "get all users",
					"protocolProfileBehavior": {
						"disableBodyPruning": true
					},
					"request": {
						"auth": {
							"type": "bearer",
							"bearer": [
								{
									"key": "token",
									"value": "{{TOKEN}}",
									"type": "string"
								}
							]
						},
						"method": "GET",
						"header": [],
						"body": {
							"mode": "raw",
							"raw": " {\"name\": \"Thanh\",\n    \"userName\": \"duythanh\",\n    \"tel\": \"0911777711\",\n    \"email\": \"gump@gmail.com\",\n    \"birthday\": \"2000-10-01T14:48:00.000Z\",\n \t\"address\": \"33 nam cao\",\n \t\"password\": \"duythanh1\",\n \t\"role\": 1\n }",
							"options": {
								"raw": {
									"language": "json"
								}
							}
						},
						"url": {
							"raw": "{{API_HOST}}/users",
							"host": [
								"{{API_HOST}}"
							],
							"path": [
								"users"
							]
						}
					},
					"response": []
				},
				{
					"name": "get  1 user",
					"protocolProfileBehavior": {
						"disableBodyPruning": true
					},
					"request": {
						"auth": {
							"type": "bearer",
							"bearer": [
								{
									"key": "token",
									"value": "{{TOKEN}}",
									"type": "string"
								}
							]
						},
						"method": "GET",
						"header": [],
						"body": {
							"mode": "raw",
							"raw": " {\"name\": \"Thanh\",\n    \"userName\": \"duythanh\",\n    \"tel\": \"0911777711\",\n    \"email\": \"gump@gmail.com\",\n    \"birthday\": \"2000-10-01T14:48:00.000Z\",\n \t\"address\": \"33 nam cao\",\n \t\"password\": \"duythanh1\",\n \t\"role\": 1\n }",
							"options": {
								"raw": {
									"language": "json"
								}
							}
						},
						"url": {
							"raw": "{{API_HOST}}/users/5ea5a79e1363980a88f72c2b",
							"host": [
								"{{API_HOST}}"
							],
							"path": [
								"users",
								"5ea5a79e1363980a88f72c2b"
							]
						}
					},
					"response": []
				},
				{
					"name": "update 1 user",
					"request": {
						"auth": {
							"type": "bearer",
							"bearer": [
								{
									"key": "token",
									"value": "{{TOKEN}}",
									"type": "string"
								}
							]
						},
						"method": "PATCH",
						"header": [],
						"body": {
							"mode": "raw",
							"raw": " {\"name\": \"ThanhS\",\n    \"userName\": \"duythanh1\",\n    \"tel\": \"0911777711\",\n    \"email\": \"duythanh@gmail.com\",\n    \"birthday\": \"2000-10-01T14:48:00.000Z\",\n \t\"address\": \"33 nam cao\"\n }",
							"options": {
								"raw": {
									"language": "json"
								}
							}
						},
						"url": {
							"raw": "{{API_HOST}}/users/5ea5a79e1363980a88f72c2b",
							"host": [
								"{{API_HOST}}"
							],
							"path": [
								"users",
								"5ea5a79e1363980a88f72c2b"
							]
						}
					},
					"response": []
				},
				{
					"name": "search user by name",
					"protocolProfileBehavior": {
						"disableBodyPruning": true
					},
					"request": {
						"auth": {
							"type": "bearer",
							"bearer": [
								{
									"key": "token",
									"value": "{{TOKEN}}",
									"type": "string"
								}
							]
						},
						"method": "GET",
						"header": [],
						"body": {
							"mode": "raw",
							"raw": " {\"name\": \"Thanh\",\n    \"userName\": \"duythanh\",\n    \"tel\": \"0911777711\",\n    \"email\": \"gump@gmail.com\",\n    \"birthday\": \"2000-10-01T14:48:00.000Z\",\n \t\"address\": \"33 nam cao\",\n \t\"password\": \"duythanh1\",\n \t\"role\": 1\n }",
							"options": {
								"raw": {
									"language": "json"
								}
							}
						},
						"url": {
							"raw": "{{API_HOST}}/users/tHa?item=name&page=0",
							"host": [
								"{{API_HOST}}"
							],
							"path": [
								"users",
								"tHa"
							],
							"query": [
								{
									"key": "item",
									"value": "name"
								},
								{
									"key": "page",
									"value": "0"
								}
							]
						}
					},
					"response": []
				}
			],
			"protocolProfileBehavior": {}
		},
		{
			"name": "category",
			"item": [
				{
					"name": "get all category",
					"protocolProfileBehavior": {
						"disableBodyPruning": true
					},
					"request": {
						"auth": {
							"type": "bearer",
							"bearer": [
								{
									"key": "token",
									"value": "{{TOKEN}}",
									"type": "string"
								}
							]
						},
						"method": "GET",
						"header": [],
						"body": {
							"mode": "raw",
							"raw": " {\"name\": \"Cafe\",\n    \"status\": \"còn hàng\"\n }",
							"options": {
								"raw": {
									"language": "json"
								}
							}
						},
						"url": {
							"raw": "{{API_HOST}}/category",
							"host": [
								"{{API_HOST}}"
							],
							"path": [
								"category"
							]
						}
					},
					"response": []
				},
				{
					"name": "get 1 category",
					"protocolProfileBehavior": {
						"disableBodyPruning": true
					},
					"request": {
						"auth": {
							"type": "bearer",
							"bearer": [
								{
									"key": "token",
									"value": "{{TOKEN}}",
									"type": "string"
								}
							]
						},
						"method": "GET",
						"header": [],
						"body": {
							"mode": "raw",
							"raw": " {\"name\": \"Cafe\",\n    \"status\": \"còn hàng\"\n }",
							"options": {
								"raw": {
									"language": "json"
								}
							}
						},
						"url": {
							"raw": "{{API_HOST}}/category/5ec0f8b810619c076c27b1cd",
							"host": [
								"{{API_HOST}}"
							],
							"path": [
								"category",
								"5ec0f8b810619c076c27b1cd"
							]
						}
					},
					"response": []
				},
				{
					"name": "update1 category",
					"request": {
						"auth": {
							"type": "bearer",
							"bearer": [
								{
									"key": "token",
									"value": "{{TOKEN}}",
									"type": "string"
								}
							]
						},
						"method": "PATCH",
						"header": [],
						"body": {
							"mode": "raw",
							"raw": " {\"name\": \"Cafe123\",\n    \"status\": \"hết hàng\"\n }",
							"options": {
								"raw": {
									"language": "json"
								}
							}
						},
						"url": {
							"raw": "{{API_HOST}}/category/5ec0f8b810619c076c27b1cd",
							"host": [
								"{{API_HOST}}"
							],
							"path": [
								"category",
								"5ec0f8b810619c076c27b1cd"
							]
						}
					},
					"response": []
				},
				{
					"name": "delete 1 category",
					"request": {
						"auth": {
							"type": "bearer",
							"bearer": [
								{
									"key": "token",
									"value": "{{TOKEN}}",
									"type": "string"
								}
							]
						},
						"method": "DELETE",
						"header": [],
						"body": {
							"mode": "raw",
							"raw": " {\"name\": \"Cafe123\",\n    \"status\": \"hết hàng\"\n }",
							"options": {
								"raw": {
									"language": "json"
								}
							}
						},
						"url": {
							"raw": "{{API_HOST}}/category/5ec0f8b810619c076c27b1cd",
							"host": [
								"{{API_HOST}}"
							],
							"path": [
								"category",
								"5ec0f8b810619c076c27b1cd"
							]
						}
					},
					"response": []
				},
				{
					"name": "create 1  category",
					"request": {
						"auth": {
							"type": "bearer",
							"bearer": [
								{
									"key": "token",
									"value": "{{TOKEN}}",
									"type": "string"
								}
							]
						},
						"method": "POST",
						"header": [],
						"body": {
							"mode": "raw",
							"raw": " {\"name\": \"Cafe\",\n    \"status\": \"còn hàng\"\n }",
							"options": {
								"raw": {
									"language": "json"
								}
							}
						},
						"url": {
							"raw": "{{API_HOST}}/category",
							"host": [
								"{{API_HOST}}"
							],
							"path": [
								"category"
							]
						}
					},
					"response": []
				}
			],
			"protocolProfileBehavior": {}
		},
		{
			"name": "product",
			"item": [
				{
					"name": "get all product",
					"protocolProfileBehavior": {
						"disableBodyPruning": true
					},
					"request": {
						"auth": {
							"type": "bearer",
							"bearer": [
								{
									"key": "token",
									"value": "{{TOKEN}}",
									"type": "string"
								}
							]
						},
						"method": "GET",
						"header": [],
						"body": {
							"mode": "raw",
							"raw": " {\n \t\"name\": \"Cafe123\",\n    \"price\": 23000,\n    \"categoryId\": \"5ec21233f15fc5069c9ee795\",\n    \"description\": \"hahahaha\"\n }",
							"options": {
								"raw": {
									"language": "json"
								}
							}
						},
						"url": {
							"raw": "{{API_HOST}}/product",
							"host": [
								"{{API_HOST}}"
							],
							"path": [
								"product"
							]
						}
					},
					"response": []
				},
				{
					"name": "get 1 product",
					"protocolProfileBehavior": {
						"disableBodyPruning": true
					},
					"request": {
						"auth": {
							"type": "bearer",
							"bearer": [
								{
									"key": "token",
									"value": "{{TOKEN}}",
									"type": "string"
								}
							]
						},
						"method": "GET",
						"header": [],
						"body": {
							"mode": "raw",
							"raw": " {\n \t\"name\": \"Cafe123\",\n    \"price\": 23000,\n    \"categoryId\": \"5ec21233f15fc5069c9ee795\",\n    \"description\": \"hahahaha\"\n }",
							"options": {
								"raw": {
									"language": "json"
								}
							}
						},
						"url": {
							"raw": "{{API_HOST}}/product/5ec214a37c5800212859a28b",
							"host": [
								"{{API_HOST}}"
							],
							"path": [
								"product",
								"5ec214a37c5800212859a28b"
							]
						}
					},
					"response": []
				},
				{
					"name": "update1 product",
					"request": {
						"auth": {
							"type": "bearer",
							"bearer": [
								{
									"key": "token",
									"value": "{{TOKEN}}",
									"type": "string"
								}
							]
						},
						"method": "PATCH",
						"header": [],
						"body": {
							"mode": "raw",
							"raw": " {\n \t\"name\": \"Cafe12312312\",\n    \"price\": 23000,\n    \"categoryId\": \"5ec21233f15fc5069c9ee795\",\n    \"description\": \"1231231313\"\n }",
							"options": {
								"raw": {
									"language": "json"
								}
							}
						},
						"url": {
							"raw": "{{API_HOST}}/product/5ec214a37c5800212859a28b",
							"host": [
								"{{API_HOST}}"
							],
							"path": [
								"product",
								"5ec214a37c5800212859a28b"
							]
						}
					},
					"response": []
				},
				{
					"name": "delete 1 product",
					"request": {
						"auth": {
							"type": "bearer",
							"bearer": [
								{
									"key": "token",
									"value": "{{TOKEN}}",
									"type": "string"
								}
							]
						},
						"method": "DELETE",
						"header": [],
						"body": {
							"mode": "raw",
							"raw": " {\n \t\"name\": \"Cafe12312312\",\n    \"price\": 23000,\n    \"categoryId\": \"5ec21233f15fc5069c9ee795\",\n    \"description\": \"1231231313\"\n }",
							"options": {
								"raw": {
									"language": "json"
								}
							}
						},
						"url": {
							"raw": "{{API_HOST}}/product/5ec214a37c5800212859a28b",
							"host": [
								"{{API_HOST}}"
							],
							"path": [
								"product",
								"5ec214a37c5800212859a28b"
							]
						}
					},
					"response": []
				},
				{
					"name": "create 1 product",
					"request": {
						"auth": {
							"type": "bearer",
							"bearer": [
								{
									"key": "token",
									"value": "{{TOKEN}}",
									"type": "string"
								}
							]
						},
						"method": "POST",
						"header": [],
						"body": {
							"mode": "raw",
							"raw": " {\n \t\"name\": \"Cafe12323\",\n    \"price\": 23000,\n    \"categoryId\": \"5ec21233f15fc5069c9ee795\",\n    \"description\": \"hahahaha\",\n    \"picture\": \"E:\\\\DA_HTTT\\\\shopweb-api\\\\upload\\\\media\\\\1590634720662\\\\1590636513229_98333120-569122164002561-6550848252034416640-n.jpg\"\n }",
							"options": {
								"raw": {
									"language": "json"
								}
							}
						},
						"url": {
							"raw": "{{API_HOST}}/product",
							"host": [
								"{{API_HOST}}"
							],
							"path": [
								"product"
							]
						}
					},
					"response": []
				},
				{
					"name": "get all product by category",
					"protocolProfileBehavior": {
						"disableBodyPruning": true
					},
					"request": {
						"auth": {
							"type": "bearer",
							"bearer": [
								{
									"key": "token",
									"value": "{{TOKEN}}",
									"type": "string"
								}
							]
						},
						"method": "GET",
						"header": [],
						"body": {
							"mode": "raw",
							"raw": " {\n \t\"name\": \"Cafe123\",\n    \"price\": 23000,\n    \"categoryId\": \"5ec21233f15fc5069c9ee795\",\n    \"description\": \"hahahaha\"\n }",
							"options": {
								"raw": {
									"language": "json"
								}
							}
						},
						"url": {
							"raw": "{{API_HOST}}/product/5ecf435c760838194c84b676?item=category&page=0&limit=3",
							"host": [
								"{{API_HOST}}"
							],
							"path": [
								"product",
								"5ecf435c760838194c84b676"
							],
							"query": [
								{
									"key": "item",
									"value": "category"
								},
								{
									"key": "page",
									"value": "0"
								},
								{
									"key": "limit",
									"value": "3"
								}
							]
						}
					},
					"response": []
				},
				{
					"name": "get all product by name",
					"protocolProfileBehavior": {
						"disableBodyPruning": true
					},
					"request": {
						"auth": {
							"type": "bearer",
							"bearer": [
								{
									"key": "token",
									"value": "{{TOKEN}}",
									"type": "string"
								}
							]
						},
						"method": "GET",
						"header": [],
						"body": {
							"mode": "raw",
							"raw": " {\n \t\"name\": \"Cafe123\",\n    \"price\": 23000,\n    \"categoryId\": \"5ec21233f15fc5069c9ee795\",\n    \"description\": \"hahahaha\"\n }",
							"options": {
								"raw": {
									"language": "json"
								}
							}
						},
						"url": {
							"raw": "{{API_HOST}}/product/1?item=name&page=0&limit=3",
							"host": [
								"{{API_HOST}}"
							],
							"path": [
								"product",
								"1"
							],
							"query": [
								{
									"key": "item",
									"value": "name"
								},
								{
									"key": "page",
									"value": "0"
								},
								{
									"key": "limit",
									"value": "3"
								}
							]
						}
					},
					"response": []
				}
			],
			"protocolProfileBehavior": {}
		},
		{
			"name": "area",
			"item": [
				{
					"name": "create 1 area",
					"request": {
						"auth": {
							"type": "bearer",
							"bearer": [
								{
									"key": "token",
									"value": "{{TOKEN}}",
									"type": "string"
								}
							]
						},
						"method": "POST",
						"header": [],
						"body": {
							"mode": "raw",
							"raw": " {\r\n            \"name\": \"tầng 1\",\r\n            \"status\": \"còn bàn\"\r\n        }",
							"options": {
								"raw": {
									"language": "json"
								}
							}
						},
						"url": {
							"raw": "{{API_HOST}}/area",
							"host": [
								"{{API_HOST}}"
							],
							"path": [
								"area"
							]
						}
					},
					"response": []
				},
				{
					"name": "get 1 area",
					"protocolProfileBehavior": {
						"disableBodyPruning": true
					},
					"request": {
						"auth": {
							"type": "bearer",
							"bearer": [
								{
									"key": "token",
									"value": "{{TOKEN}}",
									"type": "string"
								}
							]
						},
						"method": "GET",
						"header": [],
						"body": {
							"mode": "raw",
							"raw": " {\r\n            \"name\": \"tầng 1\",\r\n            \"status\": \"còn bàn\"\r\n        }",
							"options": {
								"raw": {
									"language": "json"
								}
							}
						},
						"url": {
							"raw": "{{API_HOST}}/area/5ec6047c43265a3108b6cffa",
							"host": [
								"{{API_HOST}}"
							],
							"path": [
								"area",
								"5ec6047c43265a3108b6cffa"
							]
						}
					},
					"response": []
				},
				{
					"name": "get all area",
					"protocolProfileBehavior": {
						"disableBodyPruning": true
					},
					"request": {
						"auth": {
							"type": "bearer",
							"bearer": [
								{
									"key": "token",
									"value": "{{TOKEN}}",
									"type": "string"
								}
							]
						},
						"method": "GET",
						"header": [],
						"body": {
							"mode": "raw",
							"raw": " {\r\n            \"name\": \"tầng 1\",\r\n            \"status\": \"còn bàn\"\r\n        }",
							"options": {
								"raw": {
									"language": "json"
								}
							}
						},
						"url": {
							"raw": "{{API_HOST}}/area",
							"host": [
								"{{API_HOST}}"
							],
							"path": [
								"area"
							]
						}
					},
					"response": []
				},
				{
					"name": "update 1 area",
					"request": {
						"auth": {
							"type": "bearer",
							"bearer": [
								{
									"key": "token",
									"value": "{{TOKEN}}",
									"type": "string"
								}
							]
						},
						"method": "PATCH",
						"header": [],
						"body": {
							"mode": "raw",
							"raw": " {\r\n            \"name\": \"tầng 3\",\r\n            \"status\": \"hết bàn\"\r\n        }",
							"options": {
								"raw": {
									"language": "json"
								}
							}
						},
						"url": {
							"raw": "{{API_HOST}}/area/5ec6047c43265a3108b6cffa",
							"host": [
								"{{API_HOST}}"
							],
							"path": [
								"area",
								"5ec6047c43265a3108b6cffa"
							]
						}
					},
					"response": []
				},
				{
					"name": "delete 1 area",
					"request": {
						"auth": {
							"type": "bearer",
							"bearer": [
								{
									"key": "token",
									"value": "{{TOKEN}}",
									"type": "string"
								}
							]
						},
						"method": "DELETE",
						"header": [],
						"body": {
							"mode": "raw",
							"raw": " {\r\n            \"name\": \"tầng 3\",\r\n            \"status\": \"hết bàn\"\r\n        }",
							"options": {
								"raw": {
									"language": "json"
								}
							}
						},
						"url": {
							"raw": "{{API_HOST}}/area/5ec6047c43265a3108b6cffa",
							"host": [
								"{{API_HOST}}"
							],
							"path": [
								"area",
								"5ec6047c43265a3108b6cffa"
							]
						}
					},
					"response": []
				}
			],
			"protocolProfileBehavior": {}
		},
		{
			"name": "store",
			"item": [
				{
					"name": "create store",
					"request": {
						"auth": {
							"type": "bearer",
							"bearer": [
								{
									"key": "token",
									"value": "{{TOKEN}}",
									"type": "string"
								}
							]
						},
						"method": "POST",
						"header": [],
						"body": {
							"mode": "raw",
							"raw": " {\r\n            \"name\": \"body.name\",\r\n            \"tel\": \"0934394394\",\r\n            \"address\": \"body.address\",\r\n            \"avatar\": \"body.avatar\",\r\n            \"description\": \"body.description\",\r\n            \"timeOpen\": \"2000-10-01T14:48:00.000Z\",\r\n            \"timeClose\": \"2000-10-01T14:48:00.000Z\"\r\n        }",
							"options": {
								"raw": {
									"language": "json"
								}
							}
						},
						"url": {
							"raw": "{{API_HOST}}/store",
							"host": [
								"{{API_HOST}}"
							],
							"path": [
								"store"
							]
						}
					},
					"response": []
				},
				{
					"name": "get 1 store",
					"protocolProfileBehavior": {
						"disableBodyPruning": true
					},
					"request": {
						"auth": {
							"type": "bearer",
							"bearer": [
								{
									"key": "token",
									"value": "{{TOKEN}}",
									"type": "string"
								}
							]
						},
						"method": "GET",
						"header": [],
						"body": {
							"mode": "raw",
							"raw": " {\r\n            \"name\": \"body.name\",\r\n            \"tel\": \"0934394394\",\r\n            \"address\": \"body.address\",\r\n            \"avatar\": \"body.avatar\",\r\n            \"description\": \"body.description\",\r\n            \"timeOpen\": \"2000-10-01T14:48:00.000Z\",\r\n            \"timeClose\": \"2000-10-01T14:48:00.000Z\"\r\n        }",
							"options": {
								"raw": {
									"language": "json"
								}
							}
						},
						"url": {
							"raw": "{{API_HOST}}/store/5ec5fef0cca2c51fd455dad4",
							"host": [
								"{{API_HOST}}"
							],
							"path": [
								"store",
								"5ec5fef0cca2c51fd455dad4"
							]
						}
					},
					"response": []
				},
				{
					"name": "update 1 store",
					"request": {
						"auth": {
							"type": "bearer",
							"bearer": [
								{
									"key": "token",
									"value": "{{TOKEN}}",
									"type": "string"
								}
							]
						},
						"method": "PATCH",
						"header": [],
						"body": {
							"mode": "raw",
							"raw": " {\r\n            \"name\": \"body.name2432\",\r\n            \"tel\": \"0934394394\",\r\n            \"address\": \"body.address\",\r\n            \"avatar\": \"body.avatar\",\r\n            \"description\": \"body.description123132\"\r\n        }",
							"options": {
								"raw": {
									"language": "json"
								}
							}
						},
						"url": {
							"raw": "{{API_HOST}}/store/5ec5fef0cca2c51fd455dad4",
							"host": [
								"{{API_HOST}}"
							],
							"path": [
								"store",
								"5ec5fef0cca2c51fd455dad4"
							]
						}
					},
					"response": []
				}
			],
			"protocolProfileBehavior": {}
		},
		{
			"name": "table",
			"item": [
				{
					"name": "create 1 table",
					"request": {
						"auth": {
							"type": "bearer",
							"bearer": [
								{
									"key": "token",
									"value": "{{TOKEN}}",
									"type": "string"
								}
							]
						},
						"method": "POST",
						"header": [],
						"body": {
							"mode": "raw",
							"raw": " {\n \t\"name\": \"Cafe12312312\",\n    \"status\": \"23 bàn\",\n    \"code\": \"12313\",\n    \"areaId\": \"5ec605c543265a3108b6cffc\"\n }",
							"options": {
								"raw": {
									"language": "json"
								}
							}
						},
						"url": {
							"raw": "{{API_HOST}}/table",
							"host": [
								"{{API_HOST}}"
							],
							"path": [
								"table"
							]
						}
					},
					"response": []
				},
				{
					"name": "get all table",
					"protocolProfileBehavior": {
						"disableBodyPruning": true
					},
					"request": {
						"auth": {
							"type": "bearer",
							"bearer": [
								{
									"key": "token",
									"value": "{{TOKEN}}",
									"type": "string"
								}
							]
						},
						"method": "GET",
						"header": [],
						"body": {
							"mode": "raw",
							"raw": " {\n \t\"name\": \"Cafe12312312\",\n    \"status\": \"23 bàn\",\n    \"code\": \"12313\",\n    \"areaId\": \"5ec605c543265a3108b6cffc\"\n }",
							"options": {
								"raw": {
									"language": "json"
								}
							}
						},
						"url": {
							"raw": "{{API_HOST}}/table",
							"host": [
								"{{API_HOST}}"
							],
							"path": [
								"table"
							]
						}
					},
					"response": []
				},
				{
					"name": "get 1 table",
					"protocolProfileBehavior": {
						"disableBodyPruning": true
					},
					"request": {
						"auth": {
							"type": "bearer",
							"bearer": [
								{
									"key": "token",
									"value": "{{TOKEN}}",
									"type": "string"
								}
							]
						},
						"method": "GET",
						"header": [],
						"body": {
							"mode": "raw",
							"raw": " {\n \t\"name\": \"Cafe12312312\",\n    \"status\": \"23 bàn\",\n    \"code\": \"12313\",\n    \"areaId\": \"5ec605c543265a3108b6cffc\"\n }",
							"options": {
								"raw": {
									"language": "json"
								}
							}
						},
						"url": {
							"raw": "{{API_HOST}}/table/5ece3dad1b46b13a9cdf9ea7",
							"host": [
								"{{API_HOST}}"
							],
							"path": [
								"table",
								"5ece3dad1b46b13a9cdf9ea7"
							]
						}
					},
					"response": []
				},
				{
					"name": "update 1 table",
					"request": {
						"auth": {
							"type": "bearer",
							"bearer": [
								{
									"key": "token",
									"value": "{{TOKEN}}",
									"type": "string"
								}
							]
						},
						"method": "PATCH",
						"header": [],
						"body": {
							"mode": "raw",
							"raw": " {\n \t\"name\": \"Cafe123\",\n    \"status\": \"23 bàn\",\n    \"code\": \"12313\",\n    \"areaId\": \"5ec605c543265a3108b6cffc\"\n }",
							"options": {
								"raw": {
									"language": "json"
								}
							}
						},
						"url": {
							"raw": "{{API_HOST}}/table/5ece3dad1b46b13a9cdf9ea7",
							"host": [
								"{{API_HOST}}"
							],
							"path": [
								"table",
								"5ece3dad1b46b13a9cdf9ea7"
							]
						}
					},
					"response": []
				},
				{
					"name": "delete 1 table",
					"request": {
						"auth": {
							"type": "bearer",
							"bearer": [
								{
									"key": "token",
									"value": "{{TOKEN}}",
									"type": "string"
								}
							]
						},
						"method": "DELETE",
						"header": [],
						"body": {
							"mode": "raw",
							"raw": " {\n \t\"name\": \"Cafe123\",\n    \"status\": \"23 bàn\",\n    \"code\": \"12313\",\n    \"areaId\": \"5ec605c543265a3108b6cffc\"\n }",
							"options": {
								"raw": {
									"language": "json"
								}
							}
						},
						"url": {
							"raw": "{{API_HOST}}/table/5ece3dad1b46b13a9cdf9ea7",
							"host": [
								"{{API_HOST}}"
							],
							"path": [
								"table",
								"5ece3dad1b46b13a9cdf9ea7"
							]
						}
					},
					"response": []
				},
				{
					"name": "get all table by areaId",
					"protocolProfileBehavior": {
						"disableBodyPruning": true
					},
					"request": {
						"auth": {
							"type": "bearer",
							"bearer": [
								{
									"key": "token",
									"value": "{{TOKEN}}",
									"type": "string"
								}
							]
						},
						"method": "GET",
						"header": [],
						"body": {
							"mode": "raw",
							"raw": " {\n \t\"name\": \"Cafe12312312\",\n    \"status\": \"23 bàn\",\n    \"code\": \"12313\",\n    \"areaId\": \"5ec605c543265a3108b6cffc\"\n }",
							"options": {
								"raw": {
									"language": "json"
								}
							}
						},
						"url": {
							"raw": "{{API_HOST}}/table/5ec605c543265a3108b6cffc/category",
							"host": [
								"{{API_HOST}}"
							],
							"path": [
								"table",
								"5ec605c543265a3108b6cffc",
								"category"
							]
						}
					},
					"response": []
				}
			],
			"protocolProfileBehavior": {}
		},
		{
			"name": "role",
			"item": [
				{
					"name": "create 1 role",
					"request": {
						"auth": {
							"type": "bearer",
							"bearer": [
								{
									"key": "token",
									"value": "{{TOKEN}}",
									"type": "string"
								}
							]
						},
						"method": "POST",
						"header": [],
						"body": {
							"mode": "raw",
							"raw": " {\"roleName\": \"Quản lý\",\n \"level\": 2\n }",
							"options": {
								"raw": {
									"language": "json"
								}
							}
						},
						"url": {
							"raw": "{{API_HOST}}/role",
							"host": [
								"{{API_HOST}}"
							],
							"path": [
								"role"
							]
						}
					},
					"response": []
				},
				{
					"name": "get all role",
					"protocolProfileBehavior": {
						"disableBodyPruning": true
					},
					"request": {
						"auth": {
							"type": "bearer",
							"bearer": [
								{
									"key": "token",
									"value": "{{TOKEN}}",
									"type": "string"
								}
							]
						},
						"method": "GET",
						"header": [],
						"body": {
							"mode": "raw",
							"raw": " {\"roleName\": \"Quản lý\",\n \"level\": 2\n }",
							"options": {
								"raw": {
									"language": "json"
								}
							}
						},
						"url": {
							"raw": "{{API_HOST}}/role",
							"host": [
								"{{API_HOST}}"
							],
							"path": [
								"role"
							]
						}
					},
					"response": []
				},
				{
					"name": "get 1 role",
					"protocolProfileBehavior": {
						"disableBodyPruning": true
					},
					"request": {
						"auth": {
							"type": "bearer",
							"bearer": [
								{
									"key": "token",
									"value": "{{TOKEN}}",
									"type": "string"
								}
							]
						},
						"method": "GET",
						"header": [],
						"body": {
							"mode": "raw",
							"raw": "{\n\t\"roleName\": \"Thu ngân\",\n\t\"level\":3\n}",
							"options": {
								"raw": {
									"language": "json"
								}
							}
						},
						"url": {
							"raw": "{{API_HOST}}/role/5ed76e705030c7458c53afff",
							"host": [
								"{{API_HOST}}"
							],
							"path": [
								"role",
								"5ed76e705030c7458c53afff"
							]
						}
					},
					"response": []
				},
				{
					"name": "delete 1 role",
					"request": {
						"auth": {
							"type": "bearer",
							"bearer": [
								{
									"key": "token",
									"value": "{{TOKEN}}",
									"type": "string"
								}
							]
						},
						"method": "DELETE",
						"header": [],
						"body": {
							"mode": "raw",
							"raw": "{\n\t\"roleName\": \"Thu ngân\",\n\t\"level\":3\n}",
							"options": {
								"raw": {
									"language": "json"
								}
							}
						},
						"url": {
							"raw": "{{API_HOST}}/role/5ed76e705030c7458c53afff",
							"host": [
								"{{API_HOST}}"
							],
							"path": [
								"role",
								"5ed76e705030c7458c53afff"
							]
						}
					},
					"response": []
				},
				{
					"name": "update 1 role",
					"request": {
						"auth": {
							"type": "bearer",
							"bearer": [
								{
									"key": "token",
									"value": "{{TOKEN}}",
									"type": "string"
								}
							]
						},
						"method": "PATCH",
						"header": [],
						"body": {
							"mode": "raw",
							"raw": "{\n\t\"roleName\": \"Thu ngân\",\n\t\"level\":3\n}",
							"options": {
								"raw": {
									"language": "json"
								}
							}
						},
						"url": {
							"raw": "{{API_HOST}}/role/5ed76e705030c7458c53afff",
							"host": [
								"{{API_HOST}}"
							],
							"path": [
								"role",
								"5ed76e705030c7458c53afff"
							]
						}
					},
					"response": []
				}
			],
			"protocolProfileBehavior": {}
		},
		{
			"name": "cart",
			"item": [
				{
					"name": "delete 1 cart",
					"request": {
						"auth": {
							"type": "bearer",
							"bearer": [
								{
									"key": "token",
									"value": "{{TOKEN}}",
									"type": "string"
								}
							]
						},
						"method": "DELETE",
						"header": [],
						"body": {
							"mode": "raw",
							"raw": "{\n\t\"productId\": \"5ec2145c96979c20a8318fb2\",\n\t\"amount\":1,\n\t\"note\": \"nhiều đá\"\n}",
							"options": {
								"raw": {
									"language": "json"
								}
							}
						},
						"url": {
							"raw": "{{API_HOST}}/table/5ed774fe65e97c21ec716b49/cart/5eece4a298f9043e64288c59",
							"host": [
								"{{API_HOST}}"
							],
							"path": [
								"table",
								"5ed774fe65e97c21ec716b49",
								"cart",
								"5eece4a298f9043e64288c59"
							]
						}
					},
					"response": []
				},
				{
					"name": "update amount for 1 cart in table",
					"request": {
						"auth": {
							"type": "bearer",
							"bearer": [
								{
									"key": "token",
									"value": "{{TOKEN}}",
									"type": "string"
								}
							]
						},
						"method": "PATCH",
						"header": [],
						"body": {
							"mode": "raw",
							"raw": "{\n\t\"amount\":2\n}",
							"options": {
								"raw": {
									"language": "json"
								}
							}
						},
						"url": {
							"raw": "{{API_HOST}}/table/5ed774fe65e97c21ec716b49/cart/5eece4a298f9043e64288c59",
							"host": [
								"{{API_HOST}}"
							],
							"path": [
								"table",
								"5ed774fe65e97c21ec716b49",
								"cart",
								"5eece4a298f9043e64288c59"
							]
						}
					},
					"response": []
				},
				{
					"name": "create 1 cart in table",
					"request": {
						"auth": {
							"type": "bearer",
							"bearer": [
								{
									"key": "token",
									"value": "{{TOKEN}}",
									"type": "string"
								}
							]
						},
						"method": "POST",
						"header": [],
						"body": {
							"mode": "raw",
							"raw": "{ \"carts\":[\n\t{\n\t\t\"productId\": \"5ec2145c96979c20a8318fb2\",\n\t\t\"amount\": 3,\n\t\t\"note\": \"sao cung được\"\n\t},\n\t{\n\t\t\"productId\": \"5ed71a6afd65423c74a69e6a\",\n\t\t\"amount\": 5\n\t}\n]}",
							"options": {
								"raw": {
									"language": "json"
								}
							}
						},
						"url": {
							"raw": "{{API_HOST}}/table/5ed2868b1a2d0f3c88f6e670/cart",
							"host": [
								"{{API_HOST}}"
							],
							"path": [
								"table",
								"5ed2868b1a2d0f3c88f6e670",
								"cart"
							]
						}
					},
					"response": []
				}
			],
			"protocolProfileBehavior": {}
		},
		{
			"name": "bill",
			"item": [
				{
					"name": "create 1 bill",
					"request": {
						"auth": {
							"type": "bearer",
							"bearer": [
								{
									"key": "token",
									"value": "{{TOKEN}}",
									"type": "string"
								}
							]
						},
						"method": "POST",
						"header": [
							{
								"key": "{table-id}",
								"value": "5ed774fe65e97c21ec716b49",
								"type": "text",
								"disabled": true
							}
						],
						"body": {
							"mode": "raw",
							"raw": "{\n\t\"totalPrice\": 2400000,\n\t\"tableId\": \"5ed774fe65e97c21ec716b49\"\n}",
							"options": {
								"raw": {
									"language": "json"
								}
							}
						},
						"url": {
							"raw": "{{API_HOST}}/bill",
							"host": [
								"{{API_HOST}}"
							],
							"path": [
								"bill"
							]
						}
					},
					"response": []
				},
				{
					"name": "get all bill",
					"protocolProfileBehavior": {
						"disableBodyPruning": true
					},
					"request": {
						"auth": {
							"type": "bearer",
							"bearer": [
								{
									"key": "token",
									"value": "{{TOKEN}}",
									"type": "string"
								}
							]
						},
						"method": "GET",
						"header": [],
						"body": {
							"mode": "raw",
							"raw": "{\n\t\"cartId\":[\"5ed9b0055c4a5450880954e4\",\"5ed9b0dbdb4ed313ec7baaa0\"],\n\t\"totalPrice\": 2400000,\n\t\"tableId\": [\"5ece3f6f1b46b13a9cdf9ea8\",\"5ed2868b1a2d0f3c88f6e670\"]\n}",
							"options": {
								"raw": {
									"language": "json"
								}
							}
						},
						"url": {
							"raw": "{{API_HOST}}/bill",
							"host": [
								"{{API_HOST}}"
							],
							"path": [
								"bill"
							]
						}
					},
					"response": []
				},
				{
					"name": "get 1 bill",
					"protocolProfileBehavior": {
						"disableBodyPruning": true
					},
					"request": {
						"auth": {
							"type": "bearer",
							"bearer": [
								{
									"key": "token",
									"value": "{{TOKEN}}",
									"type": "string"
								}
							]
						},
						"method": "GET",
						"header": [],
						"body": {
							"mode": "raw",
							"raw": "{\n\t\"cartId\":[\"5ed9b0055c4a5450880954e4\",\"5ed9b0dbdb4ed313ec7baaa0\"],\n\t\"totalPrice\": 2400000,\n\t\"tableId\": [\"5ece3f6f1b46b13a9cdf9ea8\",\"5ed2868b1a2d0f3c88f6e670\"]\n}",
							"options": {
								"raw": {
									"language": "json"
								}
							}
						},
						"url": {
							"raw": "{{API_HOST}}/bill/5ed9bd1344013c46b0445786",
							"host": [
								"{{API_HOST}}"
							],
							"path": [
								"bill",
								"5ed9bd1344013c46b0445786"
							]
						}
					},
					"response": []
				},
				{
					"name": "update 1 bill",
					"request": {
						"auth": {
							"type": "bearer",
							"bearer": [
								{
									"key": "token",
									"value": "{{TOKEN}}",
									"type": "string"
								}
							]
						},
						"method": "PATCH",
						"header": [],
						"body": {
							"mode": "raw",
							"raw": "{\n\t\"totalPrice\": 24\n}",
							"options": {
								"raw": {
									"language": "json"
								}
							}
						},
						"url": {
							"raw": "{{API_HOST}}/bill/5ed9bd1344013c46b0445786",
							"host": [
								"{{API_HOST}}"
							],
							"path": [
								"bill",
								"5ed9bd1344013c46b0445786"
							]
						}
					},
					"response": []
				},
				{
					"name": "delete 1 bill",
					"request": {
						"auth": {
							"type": "bearer",
							"bearer": [
								{
									"key": "token",
									"value": "{{TOKEN}}",
									"type": "string"
								}
							]
						},
						"method": "DELETE",
						"header": [],
						"body": {
							"mode": "raw",
							"raw": "{\n\t\"totalPrice\": 24\n}",
							"options": {
								"raw": {
									"language": "json"
								}
							}
						},
						"url": {
							"raw": "{{API_HOST}}/bill/5ed9bb76958c6908889ea07c",
							"host": [
								"{{API_HOST}}"
							],
							"path": [
								"bill",
								"5ed9bb76958c6908889ea07c"
							]
						}
					},
					"response": []
				},
				{
					"name": "get bill by date",
					"request": {
						"auth": {
							"type": "bearer",
							"bearer": [
								{
									"key": "token",
									"value": "{{TOKEN}}",
									"type": "string"
								}
							]
						},
						"method": "GET",
						"header": [],
						"url": {
							"raw": "{{API_HOST}}/bill/1591327884354-1592832286195?item=date",
							"host": [
								"{{API_HOST}}"
							],
							"path": [
								"bill",
								"1591327884354-1592832286195"
							],
							"query": [
								{
									"key": "item",
									"value": "date"
								}
							]
						}
					},
					"response": []
				}
			],
			"protocolProfileBehavior": {}
		},
		{
			"name": "items",
			"item": [
				{
					"name": "create 1 items",
					"request": {
						"auth": {
							"type": "bearer",
							"bearer": [
								{
									"key": "token",
									"value": "{{TOKEN}}",
									"type": "string"
								}
							]
						},
						"method": "POST",
						"header": [],
						"body": {
							"mode": "raw",
							"raw": "{\n\t\"name\": \"trà sữa 123 \",\n\t\"code\":\"123a\",\n\t\"description\": \"nhiều đá\",\n\t\"price\": 23000\n}",
							"options": {
								"raw": {
									"language": "json"
								}
							}
						},
						"url": {
							"raw": "{{API_HOST}}/items",
							"host": [
								"{{API_HOST}}"
							],
							"path": [
								"items"
							]
						}
					},
					"response": []
				},
				{
					"name": "get all items",
					"protocolProfileBehavior": {
						"disableBodyPruning": true
					},
					"request": {
						"auth": {
							"type": "bearer",
							"bearer": [
								{
									"key": "token",
									"value": "{{TOKEN}}",
									"type": "string"
								}
							]
						},
						"method": "GET",
						"header": [],
						"body": {
							"mode": "raw",
							"raw": "{\n\t\"name\": \"trà sữa\",\n\t\"code\":\"123a\",\n\t\"description\": \"nhiều đá\"\n}",
							"options": {
								"raw": {
									"language": "json"
								}
							}
						},
						"url": {
							"raw": "{{API_HOST}}/items",
							"host": [
								"{{API_HOST}}"
							],
							"path": [
								"items"
							]
						}
					},
					"response": []
				},
				{
					"name": "get 1 items by id",
					"protocolProfileBehavior": {
						"disableBodyPruning": true
					},
					"request": {
						"auth": {
							"type": "bearer",
							"bearer": [
								{
									"key": "token",
									"value": "{{TOKEN}}",
									"type": "string"
								}
							]
						},
						"method": "GET",
						"header": [],
						"body": {
							"mode": "raw",
							"raw": "{\n\t\"name\": \"trà sữa\",\n\t\"code\":\"123a\",\n\t\"description\": \"nhiều đá\"\n}",
							"options": {
								"raw": {
									"language": "json"
								}
							}
						},
						"url": {
							"raw": "{{API_HOST}}/items/5ee655267876a02510a7e5b7",
							"host": [
								"{{API_HOST}}"
							],
							"path": [
								"items",
								"5ee655267876a02510a7e5b7"
							]
						}
					},
					"response": []
				},
				{
					"name": "get 1 items by name",
					"protocolProfileBehavior": {
						"disableBodyPruning": true
					},
					"request": {
						"auth": {
							"type": "bearer",
							"bearer": [
								{
									"key": "token",
									"value": "{{TOKEN}}",
									"type": "string"
								}
							]
						},
						"method": "GET",
						"header": [],
						"body": {
							"mode": "raw",
							"raw": "{\n\t\"name\": \"trà sữa\",\n\t\"code\":\"123a\",\n\t\"description\": \"nhiều đá\"\n}",
							"options": {
								"raw": {
									"language": "json"
								}
							}
						},
						"url": {
							"raw": "{{API_HOST}}/items/tr?item=name",
							"host": [
								"{{API_HOST}}"
							],
							"path": [
								"items",
								"tr"
							],
							"query": [
								{
									"key": "item",
									"value": "name"
								}
							]
						}
					},
					"response": []
				},
				{
					"name": "update 1 items by id",
					"request": {
						"auth": {
							"type": "bearer",
							"bearer": [
								{
									"key": "token",
									"value": "{{TOKEN}}",
									"type": "string"
								}
							]
						},
						"method": "PATCH",
						"header": [],
						"body": {
							"mode": "raw",
							"raw": "{\n\t\"name\": \"trà sữa\",\n\t\"code\":\"123a123123\",\n\t\"description\": \"nhiều đá\",\n\t\"price\": 240000\n}",
							"options": {
								"raw": {
									"language": "json"
								}
							}
						},
						"url": {
							"raw": "{{API_HOST}}/items/5ef1cfe9bac8c63e007e133b",
							"host": [
								"{{API_HOST}}"
							],
							"path": [
								"items",
								"5ef1cfe9bac8c63e007e133b"
							]
						}
					},
					"response": []
				},
				{
					"name": "delete 1 items by id",
					"request": {
						"auth": {
							"type": "bearer",
							"bearer": [
								{
									"key": "token",
									"value": "{{TOKEN}}",
									"type": "string"
								}
							]
						},
						"method": "DELETE",
						"header": [],
						"body": {
							"mode": "raw",
							"raw": "{\n\t\"name\": \"trà sữa\",\n\t\"code\":\"123a123123\",\n\t\"description\": \"nhiều đá\"\n}",
							"options": {
								"raw": {
									"language": "json"
								}
							}
						},
						"url": {
							"raw": "{{API_HOST}}/items/5ee655267876a02510a7e5b7",
							"host": [
								"{{API_HOST}}"
							],
							"path": [
								"items",
								"5ee655267876a02510a7e5b7"
							]
						}
					},
					"response": []
				}
			],
			"protocolProfileBehavior": {}
		},
		{
			"name": "warehouses",
			"item": [
				{
					"name": "create 1 warehouses",
					"request": {
						"auth": {
							"type": "bearer",
							"bearer": [
								{
									"key": "token",
									"value": "{{TOKEN}}",
									"type": "string"
								}
							]
						},
						"method": "POST",
						"header": [],
						"body": {
							"mode": "raw",
							"raw": "{\n\t\"items\": [{\n\t\t\"id\": \"5ee656517876a02510a7e5b8\",\n\t\t\"name\": \"string\",\n    \"code\": 123,\n    \"description\": \"string\",\n    \"price\": 23000,\n\t\t\"amount\": 3\n\t},\n\t{\n\t\t\"id\": \"5ee6566a7876a02510a7e5ba\",\n\t\t\"name\": \"string12\",\n    \"code\": 123,\n    \"description\": \"string12\",\n    \"price\": 23000,\n\t\t\"amount\": 3\n\t}],\n\t\"code\":\"123a123123\",\n\t\"description\": \"nhiều đá\",\n\t\"type\": 1,\n\t\"price\":223000,\n\t\"supplier\": \"hihihi\"\n}",
							"options": {
								"raw": {
									"language": "json"
								}
							}
						},
						"url": {
							"raw": "{{API_HOST}}/warehouses",
							"host": [
								"{{API_HOST}}"
							],
							"path": [
								"warehouses"
							]
						}
					},
					"response": []
				},
				{
					"name": "get all warehouses",
					"protocolProfileBehavior": {
						"disableBodyPruning": true
					},
					"request": {
						"auth": {
							"type": "bearer",
							"bearer": [
								{
									"key": "token",
									"value": "{{TOKEN}}",
									"type": "string"
								}
							]
						},
						"method": "GET",
						"header": [],
						"body": {
							"mode": "raw",
							"raw": "{\n\t\"items\": [\"5ee6566a7876a02510a7e5ba\",\"5ee6565f7876a02510a7e5b9\"],\n\t\"code\":\"123a123123\",\n\t\"description\": \"nhiều đá\",\n\t\"type\": 1,\n\t\"price\":223000,\n\t\"supplier\": \"hihihi\",\n\t\"amount\": 5\n}",
							"options": {
								"raw": {
									"language": "json"
								}
							}
						},
						"url": {
							"raw": "{{API_HOST}}/warehouses",
							"host": [
								"{{API_HOST}}"
							],
							"path": [
								"warehouses"
							]
						}
					},
					"response": []
				},
				{
					"name": "get 1 warehouses",
					"protocolProfileBehavior": {
						"disableBodyPruning": true
					},
					"request": {
						"auth": {
							"type": "bearer",
							"bearer": [
								{
									"key": "token",
									"value": "{{TOKEN}}",
									"type": "string"
								}
							]
						},
						"method": "GET",
						"header": [],
						"body": {
							"mode": "raw",
							"raw": "{\n\t\"items\": [\"5ee6566a7876a02510a7e5ba\",\"5ee6565f7876a02510a7e5b9\"],\n\t\"code\":\"123a123123\",\n\t\"description\": \"nhiều đá\",\n\t\"type\": 1,\n\t\"price\":223000,\n\t\"supplier\": \"hihihi\",\n\t\"amount\": 5\n}",
							"options": {
								"raw": {
									"language": "json"
								}
							}
						},
						"url": {
							"raw": "{{API_HOST}}/warehouses/5ee657137876a02510a7e5bb",
							"host": [
								"{{API_HOST}}"
							],
							"path": [
								"warehouses",
								"5ee657137876a02510a7e5bb"
							]
						}
					},
					"response": []
				},
				{
					"name": "update 1 warehouses by id",
					"request": {
						"auth": {
							"type": "bearer",
							"bearer": [
								{
									"key": "token",
									"value": "{{TOKEN}}",
									"type": "string"
								}
							]
						},
						"method": "PATCH",
						"header": [],
						"body": {
							"mode": "raw",
							"raw": "{\n\t\"code\":\"123a123123\",\n\t\"description\": \"nhiều đá\",\n\t\"type\": 2,\n\t\"price\":223000,\n\t\"supplier\": \"hihih121i\",\n\t\"amount\": 5\n}",
							"options": {
								"raw": {
									"language": "json"
								}
							}
						},
						"url": {
							"raw": "{{API_HOST}}/warehouses/5ee657137876a02510a7e5bb",
							"host": [
								"{{API_HOST}}"
							],
							"path": [
								"warehouses",
								"5ee657137876a02510a7e5bb"
							]
						}
					},
					"response": []
				},
				{
					"name": "delete 1 warehouses by id",
					"request": {
						"auth": {
							"type": "bearer",
							"bearer": [
								{
									"key": "token",
									"value": "{{TOKEN}}",
									"type": "string"
								}
							]
						},
						"method": "DELETE",
						"header": [],
						"body": {
							"mode": "raw",
							"raw": "{\n\t\"code\":\"123a123123\",\n\t\"description\": \"nhiều đá\",\n\t\"type\": 2,\n\t\"price\":223000,\n\t\"supplier\": \"hihih121i\",\n\t\"amount\": 5\n}",
							"options": {
								"raw": {
									"language": "json"
								}
							}
						},
						"url": {
							"raw": "{{API_HOST}}/warehouses/5ee657137876a02510a7e5bb",
							"host": [
								"{{API_HOST}}"
							],
							"path": [
								"warehouses",
								"5ee657137876a02510a7e5bb"
							]
						}
					},
					"response": []
				},
				{
					"name": "get warehouses by date",
					"request": {
						"auth": {
							"type": "bearer",
							"bearer": [
								{
									"key": "token",
									"value": "{{TOKEN}}",
									"type": "string"
								}
							]
						},
						"method": "GET",
						"header": [],
						"url": {
							"raw": "{{API_HOST}}/warehouses/1592153874928-1592446684029?item=date",
							"host": [
								"{{API_HOST}}"
							],
							"path": [
								"warehouses",
								"1592153874928-1592446684029"
							],
							"query": [
								{
									"key": "item",
									"value": "date"
								}
							]
						}
					},
					"response": []
				}
			],
			"protocolProfileBehavior": {}
		},
		{
			"name": "upload image",
			"request": {
				"auth": {
					"type": "bearer",
					"bearer": [
						{
							"key": "token",
							"value": "{{TOKEN}}",
							"type": "string"
						}
					]
				},
				"method": "POST",
				"header": [],
				"body": {
					"mode": "formdata",
					"formdata": [
						{
							"key": "file",
							"type": "file",
							"src": "/C:/Users/Duy Thanh/Desktop/98333120_569122164002561_6550848252034416640_n.jpg"
						}
					],
					"options": {
						"raw": {
							"language": "json"
						}
					}
				},
				"url": {
					"raw": "{{API_HOST}}/upload",
					"host": [
						"{{API_HOST}}"
					],
					"path": [
						"upload"
					]
				}
			},
			"response": []
		},
		{
			"name": "token",
			"event": [
				{
					"listen": "test",
					"script": {
						"id": "f6ce7a5e-74ee-4475-b8cc-754a5d66b0f4",
						"exec": [
							"pm.test(\"Status code is 200\", function () {",
							"    pm.response.to.have.status(200);",
							"});",
							"pm.test(\"Your test name\", function () {",
							"    var jsonData = pm.response.json();",
							"    pm.expect(jsonData.id).to.eql(\"5e702929fe984a5b015a7cce\");",
							"});"
						],
						"type": "text/javascript"
					}
				}
			],
			"request": {
				"method": "POST",
				"header": [
					{
						"key": "Content-Type",
						"name": "Content-Type",
						"value": "application/json",
						"type": "text"
					}
				],
				"body": {
					"mode": "raw",
					"raw": "{\n    \"userName\": \"duythanh\",\n    \"password\": \"duythanh1\"\n}"
				},
				"url": {
					"raw": "{{API_HOST}}/auth/login",
					"host": [
						"{{API_HOST}}"
					],
					"path": [
						"auth",
						"login"
					]
				}
			},
			"response": []
		}
	],
	"protocolProfileBehavior": {}
}